<?xml version="1.0" encoding="UTF-8"?>
<svg width="24px" height="24px" viewBox="0 0 24 24" version="1.1" xmlns="http://www.w3.org/2000/svg"
     xmlns:xlink="http://www.w3.org/1999/xlink">
    <!-- Generator: Sketch 50.2 (55047) - http://www.bohemiancoding.com/sketch -->
    <title>Stockholm-icons / Media / Eject</title>
    <desc>Created with Sketch.</desc>
    <defs></defs>
    <g id="Stockholm-icons-/-Media-/-Eject" stroke="none" stroke-width="1" fill="none" fill-rule="evenodd">
        <rect id="bound" x="0" y="0" width="24" height="24"></rect>
        <path
            d="M9.35321926,16.3736278 L16.3544311,10.3706602 C16.5640654,10.1909158 16.5882961,9.87526197 16.4085517,9.66562759 C16.3922584,9.64662485 16.3745611,9.62887247 16.3556091,9.6125202 L9.35439731,3.57169798 C9.14532254,3.39130299 8.82959492,3.41455255 8.64919993,3.62362732 C8.5708616,3.71442013 8.52776329,3.83034375 8.52776329,3.95026134 L8.52776329,15.9940512 C8.52776329,16.2701936 8.75162092,16.4940512 9.02776329,16.4940512 C9.14714624,16.4940512 9.2625893,16.4513356 9.35321926,16.3736278 Z"
            id="Path-10-Copy" fill="#000000"
            transform="translate(12.398118, 9.870355) rotate(-450.000000) translate(-12.398118, -9.870355) "></path>
        <rect id="Rectangle-Copy" fill="#000000" opacity="0.3"
              transform="translate(12.500000, 17.500000) scale(-1, 1) rotate(-270.000000) translate(-12.500000, -17.500000) "
              x="11" y="11" width="3" height="13" rx="0.5"></rect>
    </g>
</svg>
