<?xml version="1.0" encoding="UTF-8"?>
<svg width="24px" height="24px" viewBox="0 0 24 24" version="1.1" xmlns="http://www.w3.org/2000/svg"
     xmlns:xlink="http://www.w3.org/1999/xlink">
    <!-- Generator: Sketch 50.2 (55047) - http://www.bohemiancoding.com/sketch -->
    <title>Stockholm-icons / Cooking / Cooking-book</title>
    <desc>Created with Sketch.</desc>
    <defs>
        <path
            d="M20,18 L8,18 C7.44771525,18 7,18.4477153 7,19 C7,19.5522847 7.44771525,20 8,20 L20,20 L20,21 C20,21.626904 19.6418278,22 19,22 L7,22 C5.2536027,22 4,20.6941639 4,19 L4,5 C4,3.30583615 5.2536027,2 7,2 L19,2 C19.6418278,2 20,2.37309604 20,3 L20,18 Z"
            id="path-1"></path>
    </defs>
    <g id="Stockholm-icons-/-Cooking-/-Cooking-book" stroke="none" stroke-width="1" fill="none" fill-rule="evenodd">
        <rect id="bound" x="0" y="0" width="24" height="24"></rect>
        <mask id="mask-2" fill="white">
            <use xlink:href="#path-1"></use>
        </mask>
        <use id="Combined-Shape" fill="#000000" fill-rule="nonzero" opacity="0.3" xlink:href="#path-1"></use>
        <path
            d="M9.35,11.5877565 C8.57364775,11.3787952 8,10.6418068 8,9.76470588 C8,8.72511106 8.80588745,7.88235294 9.8,7.88235294 C9.85099799,7.88235294 9.90150064,7.88457082 9.95142455,7.88891938 C10.3202986,6.78883902 11.322058,6 12.5,6 C13.677942,6 14.6797014,6.78883902 15.0485755,7.88891938 C15.0984994,7.88457082 15.149002,7.88235294 15.2,7.88235294 C16.1941125,7.88235294 17,8.72511106 17,9.76470588 C17,10.6418068 16.4263522,11.3787952 15.65,11.5877565 L15.65,13.5294118 C15.65,13.7893105 15.4485281,14 15.2,14 L9.8,14 C9.55147186,14 9.35,13.7893105 9.35,13.5294118 L9.35,11.5877565 Z"
            id="Combined-Shape" fill="#000000" opacity="0.3" mask="url(#mask-2)"></path>
    </g>
</svg>
