<?xml version="1.0" encoding="UTF-8"?>
<svg width="24px" height="24px" viewBox="0 0 24 24" version="1.1" xmlns="http://www.w3.org/2000/svg"
     xmlns:xlink="http://www.w3.org/1999/xlink">
    <!-- Generator: Sketch 50.2 (55047) - http://www.bohemiancoding.com/sketch -->
    <title>Stockholm-icons / Media / Volume-half</title>
    <desc>Created with Sketch.</desc>
    <defs></defs>
    <g id="Stockholm-icons-/-Media-/-Volume-half" stroke="none" stroke-width="1" fill="none" fill-rule="evenodd">
        <rect id="bound" x="0" y="0" width="24" height="24"></rect>
        <path
            d="M16.3155516,16.1481997 C15.9540268,16.3503696 15.4970619,16.2211868 15.294892,15.859662 C15.0927222,15.4981371 15.2219049,15.0411723 15.5834298,14.8390024 C16.6045379,14.2679841 17.25,13.1909329 17.25,12 C17.25,10.8178416 16.614096,9.74756859 15.6048775,9.17309861 C15.2448979,8.96819005 15.1191879,8.51025767 15.3240965,8.15027801 C15.529005,7.79029835 15.9869374,7.66458838 16.3469171,7.86949694 C17.8200934,8.70806221 18.75,10.2731632 18.75,12 C18.75,13.7396897 17.8061594,15.3146305 16.3155516,16.1481997 Z"
            id="Oval-20" fill="#000000" fill-rule="nonzero" opacity="0.3"></path>
        <path
            d="M7,16 L3.60776773,15.3215535 C2.67291934,15.1345839 2,14.3137542 2,13.3603922 L2,10.6396078 C2,9.68624577 2.67291934,8.86541613 3.60776773,8.67844645 L7,8 L10.2928932,4.70710678 C10.6834175,4.31658249 11.3165825,4.31658249 11.7071068,4.70710678 C11.8946432,4.89464316 12,5.14899707 12,5.41421356 L12,18.5857864 C12,19.1380712 11.5522847,19.5857864 11,19.5857864 C10.7347835,19.5857864 10.4804296,19.4804296 10.2928932,19.2928932 L7,16 Z"
            id="Combined-Shape" fill="#000000"></path>
    </g>
</svg>
