<?xml version="1.0" encoding="UTF-8"?>
<svg width="24px" height="24px" viewBox="0 0 24 24" version="1.1" xmlns="http://www.w3.org/2000/svg"
     xmlns:xlink="http://www.w3.org/1999/xlink">
    <!-- Generator: Sketch 50.2 (55047) - http://www.bohemiancoding.com/sketch -->
    <title>Stockholm-icons / Devices / Laptop-macbook</title>
    <desc>Created with Sketch.</desc>
    <defs></defs>
    <g id="Stockholm-icons-/-Devices-/-Laptop-macbook" stroke="none" stroke-width="1" fill="none" fill-rule="evenodd">
        <rect id="bound" x="0" y="0" width="24" height="24"></rect>
        <path d="M5,6 L19,6 C19.5522847,6 20,6.44771525 20,7 L20,17 L4,17 L4,7 C4,6.44771525 4.44771525,6 5,6 Z"
              id="Combined-Shape" fill="#000000"></path>
        <rect id="Rectangle" fill="#000000" opacity="0.3" x="1" y="18" width="22" height="1" rx="0.5"></rect>
    </g>
</svg>
