<?xml version="1.0" encoding="UTF-8"?>
<svg width="24px" height="24px" viewBox="0 0 24 24" version="1.1" xmlns="http://www.w3.org/2000/svg"
     xmlns:xlink="http://www.w3.org/1999/xlink">
    <!-- Generator: Sketch 50.2 (55047) - http://www.bohemiancoding.com/sketch -->
    <title>Stockholm-icons / Navigation / Arrow-from-left</title>
    <desc>Created with Sketch.</desc>
    <defs></defs>
    <g id="Stockholm-icons-/-Navigation-/-Arrow-from-left" stroke="none" stroke-width="1" fill="none"
       fill-rule="evenodd">
        <polygon id="Shape" points="0 0 24 0 24 24 0 24"></polygon>
        <rect id="Rectangle" fill="#000000" opacity="0.3"
              transform="translate(14.000000, 12.000000) rotate(-90.000000) translate(-14.000000, -12.000000) " x="13"
              y="5" width="2" height="14" rx="1"></rect>
        <rect id="Rectangle-199-Copy" fill="#000000" opacity="0.3" x="3" y="3" width="2" height="18" rx="1"></rect>
        <path
            d="M11.7071032,15.7071045 C11.3165789,16.0976288 10.6834139,16.0976288 10.2928896,15.7071045 C9.90236532,15.3165802 9.90236532,14.6834152 10.2928896,14.2928909 L16.2928896,8.29289093 C16.6714686,7.914312 17.281055,7.90106637 17.675721,8.26284357 L23.675721,13.7628436 C24.08284,14.136036 24.1103429,14.7686034 23.7371505,15.1757223 C23.3639581,15.5828413 22.7313908,15.6103443 22.3242718,15.2371519 L17.0300721,10.3841355 L11.7071032,15.7071045 Z"
            id="Path-94" fill="#000000" fill-rule="nonzero"
            transform="translate(16.999999, 11.999997) scale(1, -1) rotate(90.000000) translate(-16.999999, -11.999997) "></path>
    </g>
</svg>
