<?xml version="1.0" encoding="UTF-8"?>
<svg width="24px" height="24px" viewBox="0 0 24 24" version="1.1" xmlns="http://www.w3.org/2000/svg"
     xmlns:xlink="http://www.w3.org/1999/xlink">
    <!-- Generator: Sketch 50.2 (55047) - http://www.bohemiancoding.com/sketch -->
    <title>Stockholm-icons / Home / Picture</title>
    <desc>Created with Sketch.</desc>
    <defs></defs>
    <g id="Stockholm-icons-/-Home-/-Picture" stroke="none" stroke-width="1" fill="none" fill-rule="evenodd">
        <polygon id="Shape" points="0 0 24 0 24 24 0 24"></polygon>
        <rect id="Rectangle-25" fill="#000000" opacity="0.3" x="2" y="4" width="20" height="16" rx="2"></rect>
        <polygon id="Path" fill="#000000" opacity="0.3" points="4 20 10.5 11 17 20"></polygon>
        <polygon id="Path-Copy" fill="#000000" points="11 20 15.5 14 20 20"></polygon>
        <circle id="Oval-76" fill="#000000" opacity="0.3" cx="18.5" cy="8.5" r="1.5"></circle>
    </g>
</svg>
