<?xml version="1.0" encoding="iso-8859-1"?>
<!-- Generator: Adobe Illustrator 19.0.0, SVG Export Plug-In . SVG Version: 6.00 Build 0)  -->
<svg xmlns="http://www.w3.org/2000/svg" xmlns:xlink="http://www.w3.org/1999/xlink" version="1.1" id="Layer_1" x="0px"
     y="0px" viewBox="0 0 512 512" style="enable-background:new 0 0 512 512;" xml:space="preserve">
<rect y="377.26" style="fill:#73AF00;" width="512" height="134.74"/>
    <rect style="fill:#FF4B55;" width="512" height="134.74"/>
    <rect y="134.74" style="fill:#464655;" width="512" height="242.53"/>
    <g>
	<path style="fill:#F5F5F5;"
          d="M332.405,212.395l20.278,26.527l31.663-10.598c1.77-0.593,3.276,1.409,2.216,2.946L367.6,258.752   l19.864,26.838c1.111,1.501-0.328,3.552-2.117,3.018l-31.997-9.542l-19.386,27.185c-1.084,1.52-3.479,0.786-3.525-1.081   l-0.813-33.379l-31.845-10.037c-1.781-0.561-1.822-3.066-0.061-3.686l31.495-11.088l-0.295-33.388   C328.902,211.726,331.271,210.912,332.405,212.395z"/>
        <path style="fill:#F5F5F5;"
              d="M277.369,321.475c-36.132,0-65.442-29.31-65.442-65.475c0-36.098,29.31-65.474,65.442-65.474   c13.443,0,25.84,4.135,36.171,11.132c1.582,1.072,3.388-1.007,2.063-2.385c-15.44-16.053-37.294-25.846-61.523-25.02   c-41.628,1.421-76.089,34.796-78.749,76.363c-3.047,47.612,34.653,87.179,81.591,87.179c23.121,0,43.9-9.666,58.74-25.121   c1.311-1.365-0.499-3.413-2.066-2.351C303.253,317.335,290.836,321.475,277.369,321.475z"/>
</g>
    <g>
</g>
    <g>
</g>
    <g>
</g>
    <g>
</g>
    <g>
</g>
    <g>
</g>
    <g>
</g>
    <g>
</g>
    <g>
</g>
    <g>
</g>
    <g>
</g>
    <g>
</g>
    <g>
</g>
    <g>
</g>
    <g>
</g>
</svg>
