<?xml version="1.0" encoding="UTF-8"?>
<svg width="24px" height="24px" viewBox="0 0 24 24" version="1.1" xmlns="http://www.w3.org/2000/svg"
     xmlns:xlink="http://www.w3.org/1999/xlink">
    <!-- Generator: Sketch 50.2 (55047) - http://www.bohemiancoding.com/sketch -->
    <title>Stockholm-icons / Weather / Cloudy-night</title>
    <desc>Created with Sketch.</desc>
    <defs></defs>
    <g id="Stockholm-icons-/-Weather-/-Cloudy-night" stroke="none" stroke-width="1" fill="none" fill-rule="evenodd">
        <polygon id="Shape" points="0 0 24 0 24 24 0 24"></polygon>
        <path
            d="M18.0438023,3.00018787 C17.6184443,3.73557883 17.375,4.58935969 17.375,5.5 C17.375,8.24680825 19.5899426,10.4762889 22.3311977,10.4998121 C21.4667009,11.9944192 19.8507834,13 18,13 C15.2385763,13 13,10.7614237 13,8 C13,5.23857625 15.2385763,3 18,3 C18.0146155,3 18.0292164,3.00006271 18.0438023,3.00018787 Z"
            id="Combined-Shape" fill="#000000" opacity="0.3"
            transform="translate(17.687500, 8.000000) rotate(-21.000000) translate(-17.687500, -8.000000) "></path>
        <path
            d="M5.74714567,18.0425758 C4.09410362,16.9740356 3,15.1147886 3,13 C3,9.6862915 5.6862915,7 9,7 C11.7957591,7 14.1449096,8.91215918 14.8109738,11.5 L17.25,11.5 C19.3210678,11.5 21,13.1789322 21,15.25 C21,17.3210678 19.3210678,19 17.25,19 L8.25,19 C7.28817895,19 6.41093178,18.6378962 5.74714567,18.0425758 Z"
            id="Combined-Shape" fill="#000000"></path>
    </g>
</svg>
