<?xml version="1.0" encoding="UTF-8"?>
<svg width="24px" height="24px" viewBox="0 0 24 24" version="1.1" xmlns="http://www.w3.org/2000/svg"
     xmlns:xlink="http://www.w3.org/1999/xlink">
    <!-- Generator: Sketch 50.2 (55047) - http://www.bohemiancoding.com/sketch -->
    <title>Stockholm-icons / Weather / Fog</title>
    <desc>Created with Sketch.</desc>
    <defs></defs>
    <g id="Stockholm-icons-/-Weather-/-Fog" stroke="none" stroke-width="1" fill="none" fill-rule="evenodd">
        <polygon id="Shape" points="0 0 24 0 24 24 0 24"></polygon>
        <rect id="Rectangle-89" fill="#000000" opacity="0.3" x="2" y="5" width="20" height="2" rx="1"></rect>
        <rect id="Rectangle-89-Copy-5" fill="#000000" opacity="0.3" x="2" y="17" width="20" height="2" rx="1"></rect>
        <rect id="Rectangle-89-Copy-2" fill="#000000" opacity="0.3" x="2" y="9" width="5" height="2" rx="1"></rect>
        <rect id="Rectangle-89-Copy-4" fill="#000000" opacity="0.3" x="16" y="13" width="6" height="2" rx="1"></rect>
        <rect id="Rectangle-89-Copy-3" fill="#000000" opacity="0.3" x="9" y="9" width="13" height="2" rx="1"></rect>
        <rect id="Rectangle-89-Copy" fill="#000000" opacity="0.3" x="2" y="13" width="12" height="2" rx="1"></rect>
    </g>
</svg>
